<?xml version="1.0" encoding="utf-8" standalone="yes"?>
<rss version="2.0" xmlns:atom="http://www.w3.org/2005/Atom">
  <channel>
    <title>Log on My New Hugo Site</title>
    <link>http://example.org/log/</link>
    <description>Recent content in Log on My New Hugo Site</description>
    <generator>Hugo -- gohugo.io</generator>
    <language>en-us</language>
    <lastBuildDate>Sun, 18 Sep 2022 14:34:50 -0700</lastBuildDate><atom:link href="http://example.org/log/index.xml" rel="self" type="application/rss+xml" />
    <item>
      <title>My Third Post Title (Markdown)</title>
      <link>http://example.org/log/my-third-post/</link>
      <pubDate>Sun, 18 Sep 2022 14:34:50 -0700</pubDate>
      
      <guid>http://example.org/log/my-third-post/</guid>
      <description>My Third Post Heading (Markdown, H2) Third post!
Markdown H2 Another Header More writing goes here.</description>
    </item>
    
    <item>
      <title>My Second Post Title (Org)</title>
      <link>http://example.org/log/my-second-post/</link>
      <pubDate>Sun, 18 Sep 2022 14:34:44 -0700</pubDate>
      
      <guid>http://example.org/log/my-second-post/</guid>
      <description>My Second Post Heading (Org, H1) This happens to be written in Org Mode format.
Org H2 Example More writing goes here.</description>
    </item>
    
    <item>
      <title>My First Post</title>
      <link>http://example.org/log/my-first-post/</link>
      <pubDate>Sat, 17 Sep 2022 13:42:19 -0700</pubDate>
      
      <guid>http://example.org/log/my-first-post/</guid>
      <description>My First Heading This is my first post! This is an edit.
My Second Heading This is my first post! This is an edit.
My Third Heading This is my first post! This is an edit. This is my first post! This is an edit. This is my first post! This is an edit. This is my first post! This is an edit. This is my first post! This is an edit.</description>
    </item>
    
  </channel>
</rss>
